Session 2 -- Visualizing tabular data with ggplot2 • R4CancerSci
…
library(tidyverse)
metabric <- read_csv("https://zenodo.org/record/6450144/files/metabric_clinical_and_expression_data.csv")
metabric

## # A tibble: 1,904 × 32
##    Patient_ID Cohort Age_at_diagnosis Survival_time Survival_status Vital_status
##    <chr>       <dbl>            <dbl>         <dbl> <chr>           <chr>       
##  1 MB-0000         1             75.6         140.  LIVING          Living      
##  2 MB-0002         1             43.2          84.6 LIVING          Living      
##  3 MB-0005         1             48.9         164.  DECEASED        Died of Dis…
##  4 MB-0006         1             47.7         165.  LIVING          Living      
##  5 MB-0008         1             77.0          41.4 DECEASED        Died of Dis…
##  6 MB-0010         1             78.8           7.8 DECEASED        Died of Dis…
##  7 MB-0014         1             56.4         164.  LIVING          Living      
##  8 MB-0022         1             89.1          99.5 DECEASED        Died of Oth…
##  9 MB-0028         1             86.4          36.6 DECEASED        Died of Oth…
## 10 MB-0035         1             84.2          36.3 DECEASED        Died of Dis…
## # … with 1,894 more rows, and 26 more variables: Chemotherapy <chr>,
## #   Radiotherapy <chr>, Tumour_size <dbl>, Tumour_stage <dbl>,
## #   Neoplasm_histologic_grade <dbl>, Lymph_nodes_examined_positive <dbl>,
## #   Lymph_node_status <dbl>, Cancer_type <chr>, ER_status <chr>,
## #   PR_status <chr>, HER2_status <chr>, HER2_status_measured_by_SNP6 <chr>,
## #   PAM50 <chr>, `3-gene_classifier` <chr>, Nottingham_prognostic_index <dbl>,
## #   Cellularity <chr>, Integrative_cluster <chr>, Mutation_count <dbl>, …
…
R has a special type for categorical variables called a
factor. You can read more about factors here. The other R main
data types are numeric (numbers), character (text) and logical
(TRUE/FALSE), which you can read more about in the R for Data Science
section on vectors we mentioned before here.
Let’s convert our tumour stage variable to a factor using the
as.factor() function. You should already have seen
select() in the Introduction to Tidyverse course and we
will discuss it in more detail next week.

metabric$Tumour_stage <- as.factor(metabric$Tumour_stage)
select(metabric, Patient_ID, Tumour_stage)

## # A tibble: 1,904 × 2
##    Patient_ID Tumour_stage
##    <chr>      <fct>       
##  1 MB-0000    2           
##  2 MB-0002    1           
##  3 MB-0005    2           
##  4 MB-0006    2           
##  5 MB-0008    2           
##  6 MB-0010    4           
##  7 MB-0014    2           
##  8 MB-0022    2           
##  9 MB-0028    2           
## 10 MB-0035    2           
## # … with 1,894 more rows
…
library(readxl)
# because it's an Excel file located on the web need to download then import
download.file("https://zenodo.org/record/6450144/files/2020-04-26_COVID-19_Press_Conference_Data.xlsx", destfile = "2020-04-26_COVID-19_Press_Conference_Data.xlsx")
transport_use <- read_excel("2020-04-26_COVID-19_Press_Conference_Data.xlsx",
                            sheet = "Transport use",
                            col_names = c("date", "transport_type", "percentage"),
                            col_types = c("date", "text", "numeric"),
                            skip = 4,
                            n_max = 186)
transport_use$percentage <- transport_use$percentage * 100
transport_use

## # A tibble: 186 × 3
##    date                transport_type     percentage
##    <dttm>              <chr>                   <dbl>
##  1 2020-03-16 00:00:00 All motor vehicles         98
##  2 2020-03-17 00:00:00 All motor vehicles         89
##  3 2020-03-18 00:00:00 All motor vehicles         83
##  4 2020-03-19 00:00:00 All motor vehicles         82
##  5 2020-03-20 00:00:00 All motor vehicles         81
##  6 2020-03-21 00:00:00 All motor vehicles         73
##  7 2020-03-22 00:00:00 All motor vehicles         69
##  8 2020-03-23 00:00:00 All motor vehicles         69
##  9 2020-03-24 00:00:00 All motor vehicles         49
## 10 2020-03-25 00:00:00 All motor vehicles         42
## # … with 176 more rows
…
## 
## All motor vehicles Bus (excl. London)      National rail          TfL - Bus 
##                 40                 40                 40                 34 
##         TfL - Tube 
##                 32

We’ll focus solely on rail use to start with. You should already have
seen filter() in the Introduction to Tidyverse course and
we will discuss it in more detail next week.

rail_use <- filter(transport_use, transport_type == "National rail")

rail_use

## # A tibble: 40 × 3
##    date                transport_type percentage
##    <dttm>              <chr>               <dbl>
##  1 2020-03-16 00:00:00 National rail          77
##  2 2020-03-17 00:00:00 National rail          69
##  3 2020-03-18 00:00:00 National rail          59
##  4 2020-03-19 00:00:00 National rail          52
##  5 2020-03-20 00:00:00 National rail          44
##  6 2020-03-21 00:00:00 National rail          38
##  7 2020-03-22 00:00:00 National rail          35
##  8 2020-03-23 00:00:00 National rail          29
##  9 2020-03-24 00:00:00 National rail          24
## 10 2020-03-25 00:00:00 National rail          18
## # … with 30 more rows
…
## [1] "data"        "layers"      "scales"      "mapping"     "theme"      
## [6] "coordinates" "facet"       "plot_env"    "labels"

So far we’ve constructed ggplots from data, layers (geoms) and
aesthetic mappings but do you notice the labels, scales, facet and theme
elements? We’ll be looking at how to customize plots later, including
changing the labels, altering the scales of axes, and applying a
different visual theme.

The data element is just the metabric tibble that we
provided to the ggplot() function.

plot$data

## # A tibble: 1,904 × 32
##    Patient_ID Cohort Age_at_diagnosis Survival_time Survival_status Vital_status
##    <chr>       <dbl>            <dbl>         <dbl> <chr>           <chr>       
##  1 MB-0000         1             75.6         140.  LIVING          Living      
##  2 MB-0002         1             43.2          84.6 LIVING          Living      
##  3 MB-0005         1             48.9         164.  DECEASED        Died of Dis…
##  4 MB-0006         1             47.7         165.  LIVING          Living      
##  5 MB-0008         1             77.0          41.4 DECEASED        Died of Dis…
##  6 MB-0010         1             78.8           7.8 DECEASED        Died of Dis…
##  7 MB-0014         1             56.4         164.  LIVING          Living      
##  8 MB-0022         1             89.1          99.5 DECEASED        Died of Oth…
##  9 MB-0028         1             86.4          36.6 DECEASED        Died of Oth…
## 10 MB-0035         1             84.2          36.3 DECEASED        Died of Dis…
## # … with 1,894 more rows, and 26 more variables: Chemotherapy <chr>,
## #   Radiotherapy <chr>, Tumour_size <dbl>, Tumour_stage <fct>,
## #   Neoplasm_histologic_grade <dbl>, Lymph_nodes_examined_positive <dbl>,
## #   Lymph_node_status <dbl>, Cancer_type <chr>, ER_status <chr>,
## #   PR_status <chr>, HER2_status <chr>, HER2_status_measured_by_SNP6 <chr>,
## #   PAM50 <chr>, `3-gene_classifier` <chr>, Nottingham_prognostic_index <dbl>,
## #   Cellularity <chr>, Integrative_cluster <fct>, Mutation_count <dbl>, …
…
