Session 1 -- Introduction to RStudio • R4CancerSci
…
read_tsv() prints a message telling us which types it
has assigned to each of the columns it has read, although in this case
the table has quite a lot of columns and it only outputs details about
the first few.

If we print the clinical data set we can see that
read_tsv() created a tibble.

metabric

## # A tibble: 2,509 × 20
##    `Patient ID` `Sample ID` `Cancer Type` `Cancer Type Detail…` `Mutation Count`
##    <chr>        <chr>       <chr>         <chr>                            <dbl>
##  1 MB-0000      MB-0000     Breast Cancer Breast Invasive Duct…               NA
##  2 MB-0002      MB-0002     Breast Cancer Breast Invasive Duct…                2
##  3 MB-0005      MB-0005     Breast Cancer Breast Invasive Duct…                2
##  4 MB-0006      MB-0006     Breast Cancer Breast Mixed Ductal …                1
##  5 MB-0008      MB-0008     Breast Cancer Breast Mixed Ductal …                2
##  6 MB-0010      MB-0010     Breast Cancer Breast Invasive Duct…                4
##  7 MB-0014      MB-0014     Breast Cancer Breast Invasive Duct…                4
##  8 MB-0020      MB-0020     Breast Cancer Breast Invasive Lobu…               NA
##  9 MB-0022      MB-0022     Breast Cancer Breast Mixed Ductal …                1
## 10 MB-0025      MB-0025     Breast Cancer Breast Invasive Duct…                5
## # … with 2,499 more rows, and 15 more variables:
## #   `3-Gene classifier subtype` <chr>, `Age at Diagnosis` <dbl>,
## #   Cellularity <chr>, Chemotherapy <chr>, Cohort <dbl>, `ER Status` <chr>,
## #   `ER status measured by IHC` <chr>, `HER2 Status` <chr>,
## #   `HER2 status measured by SNP6` <chr>, `Hormone Therapy` <chr>,
## #   `Inferred Menopausal State` <chr>, `Integrative Cluster` <chr>,
## #   `Lymph nodes examined positive` <dbl>, `Neoplasm Histologic Grade` <dbl>, …
…
