Session 4 -- Grouping, combining and restructuring data • R4CancerSci
…
## ── Conflicts ────────────────────────────────────────── tidyverse_conflicts() ──
## ✖ dplyr::filter() masks stats::filter()
## ✖ dplyr::lag()    masks stats::lag()

To demonstrate how these grouping and combining functions work and to
illustrate customization of plots, we’ll again use the METABRIC data
set.

metabric <- read_csv("https://zenodo.org/record/6450144/files/metabric_clinical_and_expression_data.csv")
metabric

## # A tibble: 1,904 × 32
##    Patient_ID Cohort Age_at_diagnosis Survival_time Survival_status Vital_status
##    <chr>       <dbl>            <dbl>         <dbl> <chr>           <chr>       
##  1 MB-0000         1             75.6         140.  LIVING          Living      
##  2 MB-0002         1             43.2          84.6 LIVING          Living      
##  3 MB-0005         1             48.9         164.  DECEASED        Died of Dis…
##  4 MB-0006         1             47.7         165.  LIVING          Living      
##  5 MB-0008         1             77.0          41.4 DECEASED        Died of Dis…
##  6 MB-0010         1             78.8           7.8 DECEASED        Died of Dis…
##  7 MB-0014         1             56.4         164.  LIVING          Living      
##  8 MB-0022         1             89.1          99.5 DECEASED        Died of Oth…
##  9 MB-0028         1             86.4          36.6 DECEASED        Died of Oth…
## 10 MB-0035         1             84.2          36.3 DECEASED        Died of Dis…
## # … with 1,894 more rows, and 26 more variables: Chemotherapy <chr>,
## #   Radiotherapy <chr>, Tumour_size <dbl>, Tumour_stage <dbl>,
## #   Neoplasm_histologic_grade <dbl>, Lymph_nodes_examined_positive <dbl>,
## #   Lymph_node_status <dbl>, Cancer_type <chr>, ER_status <chr>,
## #   PR_status <chr>, HER2_status <chr>, HER2_status_measured_by_SNP6 <chr>,
## #   PAM50 <chr>, `3-gene_classifier` <chr>, Nottingham_prognostic_index <dbl>,
## #   Cellularity <chr>, Integrative_cluster <chr>, Mutation_count <dbl>, …
…
Selecting or counting distinct things

There are occasions when we want to count the number of distinct
values in a variable or a combination of variables. In this week’s
assignment, we introduce another set of data from the METABRIC study
which contains details of the mutations detected by targeted sequencing
of a panel of 173 genes. We’ll read this data into R now as this
provides a good example of having multiple observations in different
rows for a single observational unit, in this case several mutations
detected in each tumour sample.

mutations <- read_csv("https://zenodo.org/record/6450144/files/metabric_mutations.csv")
select(mutations, Patient_ID, Chromosome, Position = Start_Position, Ref = Reference_Allele, Alt = Tumor_Seq_Allele1, Type = Variant_Type, Gene)

## # A tibble: 17,272 × 7
##    Patient_ID Chromosome  Position Ref   Alt   Type  Gene 
##    <chr>      <chr>          <dbl> <chr> <chr> <chr> <chr>
##  1 MTS-T0058  17           7579344 NA    NA    INS   TP53 
##  2 MTS-T0058  17           7579346 NA    NA    INS   TP53 
##  3 MTS-T0058  6          168299111 G     G     SNP   MLLT4
##  4 MTS-T0058  22          29999995 G     G     SNP   NF2  
##  5 MTS-T0059  2          198288682 A     A     SNP   SF3B1
##  6 MTS-T0059  6           86195125 T     T     SNP   NT5E 
##  7 MTS-T0059  7           55241717 C     C     SNP   EGFR 
##  8 MTS-T0059  10           6556986 C     C     SNP   PRKCQ
##  9 MTS-T0059  11          62300529 T     T     SNP   AHNAK
## 10 MTS-T0059  15          74912475 G     G     SNP   CLK3 
## # … with 17,262 more rows
…
mutations %>%
  distinct(Patient_ID) %>%
  nrow()

## [1] 2369

Similarly, we could select the distinct set of mutated genes for each
patient as follows.

mutations %>%
  distinct(Patient_ID, Gene)

## # A tibble: 15,656 × 2
##    Patient_ID Gene 
##    <chr>      <chr>
##  1 MTS-T0058  TP53 
##  2 MTS-T0058  MLLT4
##  3 MTS-T0058  NF2  
##  4 MTS-T0059  SF3B1
##  5 MTS-T0059  NT5E 
##  6 MTS-T0059  EGFR 
##  7 MTS-T0059  PRKCQ
##  8 MTS-T0059  AHNAK
##  9 MTS-T0059  CLK3 
## 10 MTS-T0059  TP53 
## # … with 15,646 more rows

This has reduced the number of rows as only distinct combinations of
patient and gene are retained. This would be necessary if we wanted to
count the number of patients that have mutations in each gene rather
than the number of mutations for that gene regardless of the
patient.

# number of mutations for each gene
count(mutations, Gene)

## # A tibble: 173 × 2
##    Gene       n
##    <chr>  <int>
##  1 ACVRL1    20
##  2 AFF2      70
##  3 AGMO      43
##  4 AGTR2     14
##  5 AHNAK    327
##  6 AHNAK2   859
##  7 AKAP9    182
##  8 AKT1     115
##  9 AKT2      23
## 10 ALK       98
## # … with 163 more rows

# number of tumour samples in which each gene is mutated
mutations %>%
  distinct(Patient_ID, Gene) %>%
  count(Gene)

## # A tibble: 173 × 2
##    Gene       n
##    <chr>  <int>
##  1 ACVRL1    20
##  2 AFF2      69
##  3 AGMO      43
##  4 AGTR2     14
##  5 AHNAK    272
##  6 AHNAK2   530
##  7 AKAP9    173
##  8 AKT1     115
##  9 AKT2      23
## 10 ALK       95
## # … with 163 more rows
…
Let’s move on to a real example of joining data from two different
tables that we used in putting together the combined METABRIC clinical
and expression data set.

We first read the clinical data into R and then just select a small
number of columns to make it easier to see what is going on when
combining the data.

clinical_data <- read_csv("https://zenodo.org/record/6450144/files/metabric_clinical_data.csv")
clinical_data <- select(clinical_data, Patient_ID, ER_status, PAM50)
clinical_data

## # A tibble: 2,509 × 3
##    Patient_ID ER_status PAM50      
##    <chr>      <chr>     <chr>      
##  1 MB-0000    Positive  claudin-low
##  2 MB-0002    Positive  LumA       
##  3 MB-0005    Positive  LumB       
##  4 MB-0006    Positive  LumB       
##  5 MB-0008    Positive  LumB       
##  6 MB-0010    Positive  LumB       
##  7 MB-0014    Positive  LumB       
##  8 MB-0020    Negative  Normal     
##  9 MB-0022    Positive  claudin-low
## 10 MB-0025    Positive  NA         
## # … with 2,499 more rows

We then read in the mRNA expression data that was downloaded
separately from cBioPortal.

mrna_expression_data <- read_tsv("https://zenodo.org/record/6450144/files/metabric_mrna_expression.txt")
mrna_expression_data

## # A tibble: 2,509 × 10
##    STUDY_ID      SAMPLE_ID  ESR1 ERBB2   PGR  TP53 PIK3CA GATA3 FOXA1  MLPH
##    <chr>         <chr>     <dbl> <dbl> <dbl> <dbl>  <dbl> <dbl> <dbl> <dbl>
##  1 brca_metabric MB-0000    8.93  9.33  5.68  6.34   5.70  6.93  7.95  9.73
##  2 brca_metabric MB-0002   10.0   9.73  7.51  6.19   5.76 11.3  11.8  12.5 
##  3 brca_metabric MB-0005   10.0   9.73  7.38  6.40   6.75  9.29 11.7  10.3 
##  4 brca_metabric MB-0006   10.4  10.3   6.82  6.87   7.22  8.67 11.9  10.5 
##  5 brca_metabric MB-0008   11.3   9.96  7.33  6.34   5.82  9.72 11.6  12.2 
##  6 brca_metabric MB-0010   11.2   9.74  5.95  5.42   6.12  9.79 12.1  11.4 
##  7 brca_metabric MB-0014   10.8   9.28  7.72  5.99   7.48  8.37 11.5  10.8 
##  8 brca_metabric MB-0020   NA    NA    NA    NA     NA    NA    NA    NA   
##  9 brca_metabric MB-0022   10.4   8.61  5.59  6.17   7.59  7.87 10.7   9.95
## 10 brca_metabric MB-0025   NA    NA    NA    NA     NA    NA    NA    NA   
## # … with 2,499 more rows

Now we have both sets of data loaded into R as data frames, we can
combine them into a single data frame using an
inner_join(). Our resulting table will only contain entries
for the patients for which expression data are available.

combined_data <- inner_join(clinical_data, mrna_expression_data, by = c("Patient_ID" = "SAMPLE_ID"))
combined_data

## # A tibble: 2,509 × 12
##    Patient_ID ER_status PAM50      STUDY_ID  ESR1 ERBB2   PGR  TP53 PIK3CA GATA3
##    <chr>      <chr>     <chr>      <chr>    <dbl> <dbl> <dbl> <dbl>  <dbl> <dbl>
##  1 MB-0000    Positive  claudin-l… brca_me…  8.93  9.33  5.68  6.34   5.70  6.93
##  2 MB-0002    Positive  LumA       brca_me… 10.0   9.73  7.51  6.19   5.76 11.3 
##  3 MB-0005    Positive  LumB       brca_me… 10.0   9.73  7.38  6.40   6.75  9.29
##  4 MB-0006    Positive  LumB       brca_me… 10.4  10.3   6.82  6.87   7.22  8.67
##  5 MB-0008    Positive  LumB       brca_me… 11.3   9.96  7.33  6.34   5.82  9.72
##  6 MB-0010    Positive  LumB       brca_me… 11.2   9.74  5.95  5.42   6.12  9.79
##  7 MB-0014    Positive  LumB       brca_me… 10.8   9.28  7.72  5.99   7.48  8.37
##  8 MB-0020    Negative  Normal     brca_me… NA    NA    NA    NA     NA    NA   
##  9 MB-0022    Positive  claudin-l… brca_me… 10.4   8.61  5.59  6.17   7.59  7.87
## 10 MB-0025    Positive  NA         brca_me… NA    NA    NA    NA     NA    NA   
## # … with 2,499 more rows, and 2 more variables: FOXA1 <dbl>, MLPH <dbl>
…
Although tables 1 to 4 contain real data they are, of course, ‘toy’
data frames created for demonstration and teaching purposes. We’ll now
turn our attention to the METABRIC expression data and see how this
needs to be transformed into a tidier format to open up different
avenues for exploring the data.

We’ll first load the table and then select just the columns we’re
going to need.

metabric_selected <- read_csv("https://zenodo.org/record/6450144/files/metabric_clinical_and_expression_data.csv") %>%
  select(Patient_ID, ER_status, ESR1:MLPH)
metabric_selected

## # A tibble: 1,904 × 10
##    Patient_ID ER_status  ESR1 ERBB2   PGR  TP53 PIK3CA GATA3 FOXA1  MLPH
##    <chr>      <chr>     <dbl> <dbl> <dbl> <dbl>  <dbl> <dbl> <dbl> <dbl>
##  1 MB-0000    Positive   8.93  9.33  5.68  6.34   5.70  6.93  7.95  9.73
##  2 MB-0002    Positive  10.0   9.73  7.51  6.19   5.76 11.3  11.8  12.5 
##  3 MB-0005    Positive  10.0   9.73  7.38  6.40   6.75  9.29 11.7  10.3 
##  4 MB-0006    Positive  10.4  10.3   6.82  6.87   7.22  8.67 11.9  10.5 
##  5 MB-0008    Positive  11.3   9.96  7.33  6.34   5.82  9.72 11.6  12.2 
##  6 MB-0010    Positive  11.2   9.74  5.95  5.42   6.12  9.79 12.1  11.4 
##  7 MB-0014    Positive  10.8   9.28  7.72  5.99   7.48  8.37 11.5  10.8 
##  8 MB-0022    Positive  10.4   8.61  5.59  6.17   7.59  7.87 10.7   9.95
##  9 MB-0028    Positive  12.5  10.7   5.33  6.22   6.25 10.3  12.1  10.9 
## 10 MB-0035    Positive   7.54 11.5   5.59  6.41   5.99 10.2  12.8  13.5 
## # … with 1,894 more rows
…
Furthermore, there are lots of tools for working with gene expression
data in the form of matrices, including many packages in the
Bioconductor project. Fortunately, as we’ve seen,
pivot_longer() and pivot_wider() provide a
very convenient means of converting between tidy and matrix-like
formats.

We’ll convert our table of ER status and gene expression data to the
tidy format.

metabric_long <- pivot_longer(metabric_selected, ESR1:MLPH, names_to = "Gene", values_to = "Expression")
metabric

## # A tibble: 1,904 × 32
##    Patient_ID Cohort Age_at_diagnosis Survival_time Survival_status Vital_status
##    <chr>       <dbl>            <dbl>         <dbl> <chr>           <chr>       
##  1 MB-0000         1             75.6         140.  LIVING          Living      
##  2 MB-0002         1             43.2          84.6 LIVING          Living      
##  3 MB-0005         1             48.9         164.  DECEASED        Died of Dis…
##  4 MB-0006         1             47.7         165.  LIVING          Living      
##  5 MB-0008         1             77.0          41.4 DECEASED        Died of Dis…
##  6 MB-0010         1             78.8           7.8 DECEASED        Died of Dis…
##  7 MB-0014         1             56.4         164.  LIVING          Living      
##  8 MB-0022         1             89.1          99.5 DECEASED        Died of Oth…
##  9 MB-0028         1             86.4          36.6 DECEASED        Died of Oth…
## 10 MB-0035         1             84.2          36.3 DECEASED        Died of Dis…
## # … with 1,894 more rows, and 26 more variables: Chemotherapy <chr>,
## #   Radiotherapy <chr>, Tumour_size <dbl>, Tumour_stage <dbl>,
## #   Neoplasm_histologic_grade <dbl>, Lymph_nodes_examined_positive <dbl>,
## #   Lymph_node_status <dbl>, Cancer_type <chr>, ER_status <chr>,
## #   PR_status <chr>, HER2_status <chr>, HER2_status_measured_by_SNP6 <chr>,
## #   PAM50 <chr>, `3-gene_classifier` <chr>, Nottingham_prognostic_index <dbl>,
## #   Cellularity <chr>, Integrative_cluster <chr>, Mutation_count <dbl>, …
…
The table in question is supplementary
data 9.

library(readxl)
# because it's an Excel file located on the web need to download then import
download.file("https://zenodo.org/record/6450144/files/41467_2018_4619_MOESM11_ESM.xlsx", destfile = "41467_2018_4619_MOESM11_ESM.xlsx")
protein_levels <- read_excel("41467_2018_4619_MOESM11_ESM.xlsx", skip = 1)
select(protein_levels, `Uniprot Accession`, `Gene Name`, ends_with("rep01"))

## # A tibble: 7,943 × 6
##    `Uniprot Accession` `Gene Name` vehicle.rep01 tam.2h.rep01 tam.6h.rep01
##    <chr>               <chr>               <dbl>        <dbl>        <dbl>
##  1 Q09666              AHNAK                17.3         17.3         17.3
##  2 P05787              KRT8                 16.9         17.1         17.0
##  3 Q15149              PLEC                 16.7         16.7         16.7
##  4 P21333              FLNA                 16.6         16.5         16.6
##  5 P05783              KRT18                16.4         16.6         16.5
##  6 P49327              FASN                 16.0         16.0         16.0
##  7 P10809              HSPD1                16.1         16.2         16.1
##  8 Q14204              DYNC1H1              16.0         15.9         16.0
##  9 O75369              FLNB                 16.1         16.1         16.2
## 10 P35579              MYH9                 15.7         15.6         15.8
## # … with 7,933 more rows, and 1 more variable: tam.24h.rep01 <dbl>
…
the number of the replicate sample for that treatment and time
point

To make use of this information we need to pivot the table such that
the sample name is in a column and protein levels are in another column,
and then to split the sample name column into its constituent parts.

For the first part of this transformation we’ll use
pivot_longer().

protein_levels <- pivot_longer(protein_levels, vehicle.rep01:tam.24h.rep04, names_to = "sample", values_to = "protein_level")
protein_levels

## # A tibble: 160 × 4
##    accession gene  sample        protein_level
##    <chr>     <chr> <chr>                 <dbl>
##  1 Q4ZG55    GREB1 vehicle.rep01         12.1 
##  2 Q4ZG55    GREB1 tam.2h.rep01          12   
##  3 Q4ZG55    GREB1 tam.6h.rep01          11.6 
##  4 Q4ZG55    GREB1 tam.24h.rep01          9.78
##  5 Q4ZG55    GREB1 vehicle.rep02         11.3 
##  6 Q4ZG55    GREB1 tam.2h.rep02          11.4 
##  7 Q4ZG55    GREB1 tam.6h.rep02          11.1 
##  8 Q4ZG55    GREB1 tam.24h.rep02          8.98
##  9 Q4ZG55    GREB1 vehicle.rep03         11.0 
## 10 Q4ZG55    GREB1 tam.2h.rep03          11.0 
## # … with 150 more rows
…
str_replace(protein_levels$sample[1:10], "vehicle", "vehicle.24h")

##  [1] "vehicle.24h.rep01" "tam.2h.rep01"      "tam.6h.rep01"     
##  [4] "tam.24h.rep01"     "vehicle.24h.rep02" "tam.2h.rep02"     
##  [7] "tam.6h.rep02"      "tam.24h.rep02"     "vehicle.24h.rep03"
## [10] "tam.2h.rep03"

Finally, we can modify the values in our data frame using
mutate().

protein_levels <- mutate(protein_levels, sample = str_replace(sample, "vehicle", "vehicle.24h"))
protein_levels

## # A tibble: 160 × 4
##    accession gene  sample            protein_level
##    <chr>     <chr> <chr>                     <dbl>
##  1 Q4ZG55    GREB1 vehicle.24h.rep01         12.1 
##  2 Q4ZG55    GREB1 tam.2h.rep01              12   
##  3 Q4ZG55    GREB1 tam.6h.rep01              11.6 
##  4 Q4ZG55    GREB1 tam.24h.rep01              9.78
##  5 Q4ZG55    GREB1 vehicle.24h.rep02         11.3 
##  6 Q4ZG55    GREB1 tam.2h.rep02              11.4 
##  7 Q4ZG55    GREB1 tam.6h.rep02              11.1 
##  8 Q4ZG55    GREB1 tam.24h.rep02              8.98
##  9 Q4ZG55    GREB1 vehicle.24h.rep03         11.0 
## 10 Q4ZG55    GREB1 tam.2h.rep03              11.0 
## # … with 150 more rows

Now we’re ready to separate the sample column into its
component parts.

protein_levels <- separate(protein_levels, sample, into = c("treatment", "time", "replicate"))
protein_levels

## # A tibble: 160 × 6
##    accession gene  treatment time  replicate protein_level
##    <chr>     <chr> <chr>     <chr> <chr>             <dbl>
##  1 Q4ZG55    GREB1 vehicle   24h   rep01             12.1 
##  2 Q4ZG55    GREB1 tam       2h    rep01             12   
##  3 Q4ZG55    GREB1 tam       6h    rep01             11.6 
##  4 Q4ZG55    GREB1 tam       24h   rep01              9.78
##  5 Q4ZG55    GREB1 vehicle   24h   rep02             11.3 
##  6 Q4ZG55    GREB1 tam       2h    rep02             11.4 
##  7 Q4ZG55    GREB1 tam       6h    rep02             11.1 
##  8 Q4ZG55    GREB1 tam       24h   rep02              8.98
##  9 Q4ZG55    GREB1 vehicle   24h   rep03             11.0 
## 10 Q4ZG55    GREB1 tam       2h    rep03             11.0 
## # … with 150 more rows
…
protein_levels <- protein_levels %>%
  mutate(group = str_sub(treatment, 1, 3)) %>%
  mutate(group = str_c(group, time)) %>%
  mutate(group = as_factor(group))
protein_levels

## # A tibble: 160 × 7
##    accession gene  treatment time  replicate protein_level group 
##    <chr>     <chr> <chr>     <chr> <chr>             <dbl> <fct> 
##  1 Q4ZG55    GREB1 vehicle   24h   rep01             12.1  veh24h
##  2 Q4ZG55    GREB1 tam       2h    rep01             12    tam2h 
##  3 Q4ZG55    GREB1 tam       6h    rep01             11.6  tam6h 
##  4 Q4ZG55    GREB1 tam       24h   rep01              9.78 tam24h
##  5 Q4ZG55    GREB1 vehicle   24h   rep02             11.3  veh24h
##  6 Q4ZG55    GREB1 tam       2h    rep02             11.4  tam2h 
##  7 Q4ZG55    GREB1 tam       6h    rep02             11.1  tam6h 
##  8 Q4ZG55    GREB1 tam       24h   rep02              8.98 tam24h
##  9 Q4ZG55    GREB1 vehicle   24h   rep03             11.0  veh24h
## 10 Q4ZG55    GREB1 tam       2h    rep03             11.0  tam2h 
## # … with 150 more rows

Computing the mean protein levels within each group is now very
straightforward.

protein_levels %>%
  group_by(accession, gene, group) %>%
  summarize(protein_level = mean(protein_level))

## `summarise()` has grouped output by 'accession', 'gene'. You can override using
## the `.groups` argument.

## # A tibble: 40 × 4
## # Groups:   accession, gene [10]
##    accession gene   group  protein_level
##    <chr>     <chr>  <fct>          <dbl>
##  1 O95084    PRSS23 veh24h          8.16
##  2 O95084    PRSS23 tam2h           8.2 
##  3 O95084    PRSS23 tam6h           8.03
##  4 O95084    PRSS23 tam24h          7.20
##  5 P06401    PGR    veh24h          9.44
##  6 P06401    PGR    tam2h           9.66
##  7 P06401    PGR    tam6h           9.41
##  8 P06401    PGR    tam24h          8.39
##  9 P08493    MGP    veh24h          5.59
## 10 P08493    MGP    tam2h           5.69
## # … with 30 more rows
…
