Session 3 -- Data manipulation with dplyr • R4CancerSci
…
Finally, we’ll return to plotting and look at the powerful feature of
ggplot2, faceting, that allows you to divide your plots
into subplots by splitting the observations based on one or more
categorical variables.

We’ll again use the METABRIC data set to illustrate how these
operations work.

metabric <- read_csv("https://zenodo.org/record/6450144/files/metabric_clinical_and_expression_data.csv")
metabric

## # A tibble: 1,904 × 32
##    Patient_ID Cohort Age_at_diagnosis Survival_time Survival_status Vital_status
##    <chr>       <dbl>            <dbl>         <dbl> <chr>           <chr>       
##  1 MB-0000         1             75.6         140.  LIVING          Living      
##  2 MB-0002         1             43.2          84.6 LIVING          Living      
##  3 MB-0005         1             48.9         164.  DECEASED        Died of Dis…
##  4 MB-0006         1             47.7         165.  LIVING          Living      
##  5 MB-0008         1             77.0          41.4 DECEASED        Died of Dis…
##  6 MB-0010         1             78.8           7.8 DECEASED        Died of Dis…
##  7 MB-0014         1             56.4         164.  LIVING          Living      
##  8 MB-0022         1             89.1          99.5 DECEASED        Died of Oth…
##  9 MB-0028         1             86.4          36.6 DECEASED        Died of Oth…
## 10 MB-0035         1             84.2          36.3 DECEASED        Died of Dis…
## # … with 1,894 more rows, and 26 more variables: Chemotherapy <chr>,
## #   Radiotherapy <chr>, Tumour_size <dbl>, Tumour_stage <dbl>,
## #   Neoplasm_histologic_grade <dbl>, Lymph_nodes_examined_positive <dbl>,
## #   Lymph_node_status <dbl>, Cancer_type <chr>, ER_status <chr>,
## #   PR_status <chr>, HER2_status <chr>, HER2_status_measured_by_SNP6 <chr>,
## #   PAM50 <chr>, `3-gene_classifier` <chr>, Nottingham_prognostic_index <dbl>,
## #   Cellularity <chr>, Integrative_cluster <chr>, Mutation_count <dbl>, …
…
The filter verb allows you to choose
rows from a data frame that match some specified criteria. The criteria
are based on values of variables and can make use of comparison
operators such as ==, >, <
and !=.

For example, to filter the METABRIC data set so that it only contains
observations for those patients who died of breast cancer we can use
filter() as follows.

deceased <- filter(metabric, Vital_status == "Died of Disease")
deceased

## # A tibble: 622 × 32
##    Patient_ID Cohort Age_at_diagnosis Survival_time Survival_status Vital_status
##    <chr>       <dbl>            <dbl>         <dbl> <chr>           <chr>       
##  1 MB-0005         1             48.9        164.   DECEASED        Died of Dis…
##  2 MB-0008         1             77.0         41.4  DECEASED        Died of Dis…
##  3 MB-0010         1             78.8          7.8  DECEASED        Died of Dis…
##  4 MB-0035         1             84.2         36.3  DECEASED        Died of Dis…
##  5 MB-0036         1             85.5        132.   DECEASED        Died of Dis…
##  6 MB-0079         1             50.4         28.5  DECEASED        Died of Dis…
##  7 MB-0083         1             64.8         86.1  DECEASED        Died of Dis…
##  8 MB-0100         1             68.7          8.07 DECEASED        Died of Dis…
##  9 MB-0102         1             51.4        141.   DECEASED        Died of Dis…
## 10 MB-0108         1             43.2         42.7  DECEASED        Died of Dis…
## # … with 612 more rows, and 26 more variables: Chemotherapy <chr>,
## #   Radiotherapy <chr>, Tumour_size <dbl>, Tumour_stage <dbl>,
## #   Neoplasm_histologic_grade <dbl>, Lymph_nodes_examined_positive <dbl>,
## #   Lymph_node_status <dbl>, Cancer_type <chr>, ER_status <chr>,
## #   PR_status <chr>, HER2_status <chr>, HER2_status_measured_by_SNP6 <chr>,
## #   PAM50 <chr>, `3-gene_classifier` <chr>, Nottingham_prognostic_index <dbl>,
## #   Cellularity <chr>, Integrative_cluster <chr>, Mutation_count <dbl>, …
…
Filtering based on a logical variable is the most simple type of
filtering of all. We don’t have any logical variables in our METABRIC
data set so we’ll create one from the binary
Survival_status variable to use as an example.

# create a new logical variable called 'Deceased'
metabric$Deceased <- metabric$Survival_status == "DECEASED"
#
# filtering based on a logical variable - only selects TRUE values
deceased <- filter(metabric, Deceased)
#
# only display those columns we're interested in
select(deceased, Patient_ID, Survival_status, Vital_status, Deceased)

## # A tibble: 1,103 × 4
##    Patient_ID Survival_status Vital_status         Deceased
##    <chr>      <chr>           <chr>                <lgl>   
##  1 MB-0005    DECEASED        Died of Disease      TRUE    
##  2 MB-0008    DECEASED        Died of Disease      TRUE    
##  3 MB-0010    DECEASED        Died of Disease      TRUE    
##  4 MB-0022    DECEASED        Died of Other Causes TRUE    
##  5 MB-0028    DECEASED        Died of Other Causes TRUE    
##  6 MB-0035    DECEASED        Died of Disease      TRUE    
##  7 MB-0036    DECEASED        Died of Disease      TRUE    
##  8 MB-0046    DECEASED        Died of Other Causes TRUE    
##  9 MB-0079    DECEASED        Died of Disease      TRUE    
## 10 MB-0083    DECEASED        Died of Disease      TRUE    
## # … with 1,093 more rows
…
filter() only retains rows where the condition if
TRUE; both FALSE and NA values
are filtered out.

We can apply more than one condition in our filtering operation, for
example the patients who were still alive at the time of the METABRIC
study and had survived for more than 10 years (120 months).

filter(metabric, Survival_status == "LIVING", Survival_time > 120)

## # A tibble: 545 × 33
##    Patient_ID Cohort Age_at_diagnosis Survival_time Survival_status Vital_status
##    <chr>       <dbl>            <dbl>         <dbl> <chr>           <chr>       
##  1 MB-0000         1             75.6          140. LIVING          Living      
##  2 MB-0006         1             47.7          165. LIVING          Living      
##  3 MB-0014         1             56.4          164. LIVING          Living      
##  4 MB-0039         1             70.9          164. LIVING          Living      
##  5 MB-0045         1             45.3          165. LIVING          Living      
##  6 MB-0053         1             70.0          161. LIVING          Living      
##  7 MB-0054         1             66.9          160. LIVING          Living      
##  8 MB-0060         1             45.4          141. LIVING          Living      
##  9 MB-0062         1             52.1          154. LIVING          Living      
## 10 MB-0066         1             61.5          157. LIVING          Living      
## # … with 535 more rows, and 27 more variables: Chemotherapy <chr>,
## #   Radiotherapy <chr>, Tumour_size <dbl>, Tumour_stage <dbl>,
## #   Neoplasm_histologic_grade <dbl>, Lymph_nodes_examined_positive <dbl>,
## #   Lymph_node_status <dbl>, Cancer_type <chr>, ER_status <chr>,
## #   PR_status <chr>, HER2_status <chr>, HER2_status_measured_by_SNP6 <chr>,
## #   PAM50 <chr>, `3-gene_classifier` <chr>, Nottingham_prognostic_index <dbl>,
## #   Cellularity <chr>, Integrative_cluster <chr>, Mutation_count <dbl>, …
…
Using the $ operator is quite convenient for selecting a
single column and extracting the values as a vector. However, for
selecting multiple columns, the select()
function from dplyr is simpler. We have already seen it a little when we
used it above to view just a few columns in the dataset.

select(metabric, Patient_ID, Survival_status, Vital_status, Deceased)

## # A tibble: 1,904 × 4
##    Patient_ID Survival_status Vital_status         Deceased
##    <chr>      <chr>           <chr>                <lgl>   
##  1 MB-0000    LIVING          Living               FALSE   
##  2 MB-0002    LIVING          Living               FALSE   
##  3 MB-0005    DECEASED        Died of Disease      TRUE    
##  4 MB-0006    LIVING          Living               FALSE   
##  5 MB-0008    DECEASED        Died of Disease      TRUE    
##  6 MB-0010    DECEASED        Died of Disease      TRUE    
##  7 MB-0014    LIVING          Living               FALSE   
##  8 MB-0022    DECEASED        Died of Other Causes TRUE    
##  9 MB-0028    DECEASED        Died of Other Causes TRUE    
## 10 MB-0035    DECEASED        Died of Disease      TRUE    
## # … with 1,894 more rows

Notice the similarities with the filter() function. The
first argument is the data frame we are operating on and the arguments
that follow on are specific to the operation in question, in this case,
the variables (columns) to select. Note that the variables do not need
to be put in quotes, and the returned value is another data frame, even
if only one column was selected.

We can alter the order of the variables (columns).

select(metabric, Patient_ID, Vital_status, Survival_status, Deceased)

## # A tibble: 1,904 × 4
##    Patient_ID Vital_status         Survival_status Deceased
##    <chr>      <chr>                <chr>           <lgl>   
##  1 MB-0000    Living               LIVING          FALSE   
##  2 MB-0002    Living               LIVING          FALSE   
##  3 MB-0005    Died of Disease      DECEASED        TRUE    
##  4 MB-0006    Living               LIVING          FALSE   
##  5 MB-0008    Died of Disease      DECEASED        TRUE    
##  6 MB-0010    Died of Disease      DECEASED        TRUE    
##  7 MB-0014    Living               LIVING          FALSE   
##  8 MB-0022    Died of Other Causes DECEASED        TRUE    
##  9 MB-0028    Died of Other Causes DECEASED        TRUE    
## 10 MB-0035    Died of Disease      DECEASED        TRUE    
## # … with 1,894 more rows

We can also select a range of columns using
:, e.g. to select the patient identifier
and all the columns between Tumour_size and
Cancer_type we could run the following
select() command.

select(metabric, Patient_ID, Chemotherapy:Tumour_stage)

## # A tibble: 1,904 × 5
##    Patient_ID Chemotherapy Radiotherapy Tumour_size Tumour_stage
##    <chr>      <chr>        <chr>              <dbl>        <dbl>
##  1 MB-0000    NO           YES                   22            2
##  2 MB-0002    NO           YES                   10            1
##  3 MB-0005    YES          NO                    15            2
##  4 MB-0006    YES          YES                   25            2
##  5 MB-0008    YES          YES                   40            2
##  6 MB-0010    NO           YES                   31            4
##  7 MB-0014    YES          YES                   10            2
##  8 MB-0022    NO           YES                   29            2
##  9 MB-0028    NO           YES                   16            2
## 10 MB-0035    NO           NO                    28            2
## # … with 1,894 more rows

The help page for select points to some special
functions that can be used within select(). We can find all
the columns, for example, that contain the term “status” using
contains().

select(metabric, contains("status"))

## # A tibble: 1,904 × 7
##    Survival_status Vital_status Lymph_node_stat… ER_status PR_status HER2_status
##    <chr>           <chr>                   <dbl> <chr>     <chr>     <chr>      
##  1 LIVING          Living                      3 Positive  Negative  Negative   
##  2 LIVING          Living                      1 Positive  Positive  Negative   
##  3 DECEASED        Died of Dis…                2 Positive  Positive  Negative   
##  4 LIVING          Living                      2 Positive  Positive  Negative   
##  5 DECEASED        Died of Dis…                3 Positive  Positive  Negative   
##  6 DECEASED        Died of Dis…                1 Positive  Positive  Negative   
##  7 LIVING          Living                      2 Positive  Positive  Negative   
##  8 DECEASED        Died of Oth…                2 Positive  Negative  Negative   
##  9 DECEASED        Died of Oth…                2 Positive  Negative  Negative   
## 10 DECEASED        Died of Dis…                1 Positive  Negative  Negative   
## # … with 1,894 more rows, and 1 more variable:
## #   HER2_status_measured_by_SNP6 <chr>

If we only wanted those ending with “status” we could use
ends_with() instead.

select(metabric, ends_with("status"))

## # A tibble: 1,904 × 6
##    Survival_status Vital_status Lymph_node_stat… ER_status PR_status HER2_status
##    <chr>           <chr>                   <dbl> <chr>     <chr>     <chr>      
##  1 LIVING          Living                      3 Positive  Negative  Negative   
##  2 LIVING          Living                      1 Positive  Positive  Negative   
##  3 DECEASED        Died of Dis…                2 Positive  Positive  Negative   
##  4 LIVING          Living                      2 Positive  Positive  Negative   
##  5 DECEASED        Died of Dis…                3 Positive  Positive  Negative   
##  6 DECEASED        Died of Dis…                1 Positive  Positive  Negative   
##  7 LIVING          Living                      2 Positive  Positive  Negative   
##  8 DECEASED        Died of Oth…                2 Positive  Negative  Negative   
##  9 DECEASED        Died of Oth…                2 Positive  Negative  Negative   
## 10 DECEASED        Died of Dis…                1 Positive  Negative  Negative   
## # … with 1,894 more rows

We can also select those columns we’re not interested in and that
shouldn’t be included by prefixing the columns with
-.

select(metabric, -Cohort)

## # A tibble: 1,904 × 32
##    Patient_ID Age_at_diagnosis Survival_time Survival_status Vital_status       
##    <chr>                 <dbl>         <dbl> <chr>           <chr>              
##  1 MB-0000                75.6         140.  LIVING          Living             
##  2 MB-0002                43.2          84.6 LIVING          Living             
##  3 MB-0005                48.9         164.  DECEASED        Died of Disease    
##  4 MB-0006                47.7         165.  LIVING          Living             
##  5 MB-0008                77.0          41.4 DECEASED        Died of Disease    
##  6 MB-0010                78.8           7.8 DECEASED        Died of Disease    
##  7 MB-0014                56.4         164.  LIVING          Living             
##  8 MB-0022                89.1          99.5 DECEASED        Died of Other Caus…
##  9 MB-0028                86.4          36.6 DECEASED        Died of Other Caus…
## 10 MB-0035                84.2          36.3 DECEASED        Died of Disease    
## # … with 1,894 more rows, and 27 more variables: Chemotherapy <chr>,
## #   Radiotherapy <chr>, Tumour_size <dbl>, Tumour_stage <dbl>,
## #   Neoplasm_histologic_grade <dbl>, Lymph_nodes_examined_positive <dbl>,
## #   Lymph_node_status <dbl>, Cancer_type <chr>, ER_status <chr>,
## #   PR_status <chr>, HER2_status <chr>, HER2_status_measured_by_SNP6 <chr>,
## #   PAM50 <chr>, `3-gene_classifier` <chr>, Nottingham_prognostic_index <dbl>,
## #   Cellularity <chr>, Integrative_cluster <chr>, Mutation_count <dbl>, …

You can use a combination of explicit naming, ranges, helper
functions and negation to select the columns of interest.

selected_columns <- select(metabric, Patient_ID, starts_with("Tumour_"), `3-gene_classifier`:Integrative_cluster, -Cellularity)
selected_columns

## # A tibble: 1,904 × 6
##    Patient_ID Tumour_size Tumour_stage `3-gene_classifier`   Nottingham_prognos…
##    <chr>            <dbl>        <dbl> <chr>                               <dbl>
##  1 MB-0000             22            2 ER-/HER2-                            6.04
##  2 MB-0002             10            1 ER+/HER2- High Prolif                4.02
##  3 MB-0005             15            2 NA                                   4.03
##  4 MB-0006             25            2 NA                                   4.05
##  5 MB-0008             40            2 ER+/HER2- High Prolif                6.08
##  6 MB-0010             31            4 ER+/HER2- High Prolif                4.06
##  7 MB-0014             10            2 NA                                   4.02
##  8 MB-0022             29            2 NA                                   4.06
##  9 MB-0028             16            2 ER+/HER2- High Prolif                5.03
## 10 MB-0035             28            2 ER+/HER2- High Prolif                3.06
## # … with 1,894 more rows, and 1 more variable: Integrative_cluster <chr>

You can also use select() to completely reorder the
columns so they’re in the order of your choosing. The
everything() helper function is useful in this context,
particularly if what you’re really interested in is bringing one or more
columns to the left hand side and then including everything else
afterwards in whatever order they were already in.

select(metabric, Patient_ID, Survival_status, Tumour_stage, everything())

## # A tibble: 1,904 × 33
##    Patient_ID Survival_status Tumour_stage Cohort Age_at_diagnosis Survival_time
##    <chr>      <chr>                  <dbl>  <dbl>            <dbl>         <dbl>
##  1 MB-0000    LIVING                     2      1             75.6         140. 
##  2 MB-0002    LIVING                     1      1             43.2          84.6
##  3 MB-0005    DECEASED                   2      1             48.9         164. 
##  4 MB-0006    LIVING                     2      1             47.7         165. 
##  5 MB-0008    DECEASED                   2      1             77.0          41.4
##  6 MB-0010    DECEASED                   4      1             78.8           7.8
##  7 MB-0014    LIVING                     2      1             56.4         164. 
##  8 MB-0022    DECEASED                   2      1             89.1          99.5
##  9 MB-0028    DECEASED                   2      1             86.4          36.6
## 10 MB-0035    DECEASED                   2      1             84.2          36.3
## # … with 1,894 more rows, and 27 more variables: Vital_status <chr>,
## #   Chemotherapy <chr>, Radiotherapy <chr>, Tumour_size <dbl>,
## #   Neoplasm_histologic_grade <dbl>, Lymph_nodes_examined_positive <dbl>,
## #   Lymph_node_status <dbl>, Cancer_type <chr>, ER_status <chr>,
## #   PR_status <chr>, HER2_status <chr>, HER2_status_measured_by_SNP6 <chr>,
## #   PAM50 <chr>, `3-gene_classifier` <chr>, Nottingham_prognostic_index <dbl>,
## #   Cellularity <chr>, Integrative_cluster <chr>, Mutation_count <dbl>, …

Finally, columns can be renamed as part of the selection process.

select(metabric, Patient_ID, Classification = `3-gene_classifier`, NPI = Nottingham_prognostic_index)

## # A tibble: 1,904 × 3
##    Patient_ID Classification          NPI
##    <chr>      <chr>                 <dbl>
##  1 MB-0000    ER-/HER2-              6.04
##  2 MB-0002    ER+/HER2- High Prolif  4.02
##  3 MB-0005    NA                     4.03
##  4 MB-0006    NA                     4.05
##  5 MB-0008    ER+/HER2- High Prolif  6.08
##  6 MB-0010    ER+/HER2- High Prolif  4.06
##  7 MB-0014    NA                     4.02
##  8 MB-0022    NA                     4.06
##  9 MB-0028    ER+/HER2- High Prolif  5.03
## 10 MB-0035    ER+/HER2- High Prolif  3.06
## # … with 1,894 more rows
…
